45.86.55.39:12323:7a3f37a137c9:5718cba913
45.86.55.164:12323:7a3f37a137c9:5718cba913
45.86.52.243:12323:7a3f37a137c9:5718cba913
45.86.55.18:12323:7a3f37a137c9:5718cba913
45.86.55.213:12323:7a3f37a137c9:5718cba913